1 10 20
100 200 125
201 210 89
900 1000 174
1 1 1
10 1 20
999999 999999 259
999998 999999 259
999999 999998 259
1 2 2
12345 23456 279
1 100 119
6789 3456 262
897592 890432 370
2 1 2
758913 758913 181
412 654 145
358 525 142
84932 84839 227
54 13 113
5 2 8
43 25 112
65424 65482 193
5432 6425 262
43 4 112
6 2 9
1 4 8
35 62 113
321 902 179
179 32 125
125 923 179
179 143 125
230 96 125
909 919 130
987 876 174
1001 1000 143
41276 13030 324
95617 91981 328
71069 63792 312
59303 37479 340
35895 45873 314
547 492 137
6047 8475 262
6292 4777 262
8527 4077 262
1138 7044 262
44 90 116
3 10 20
9 3 20
3954 8001 262
521 297 144
267 31 128
16 880 179
86 74 111
714 70 171
780 636 171
655 91 145
65 148 122
694 954 179
808 168 171
169 693 145
926 496 179
389 580 142
622 476 142
297 339 144
31 427 144
732 636 171
760 8 171
617 60 144
146 199 125
4499 1277 238
6638 3057 262
3793 4249 202
1064 3944 238
5033 5266 192
3163 5765 238
7974 6333 257
8360 9239 247
9530 622 262
8067 8325 203
80 72 116
46 8 112
74 89 111
48 25 112
98 85 119
55 22 113
80 73 116
69 5 113
13 62 113
6 25 24
9 2 20
5 10 20
2 4 8
9 9 20
28620 21870 308
19370 23415 274
32359 26587 308
21032 46594 324
42007 47323 314
61077 77492 351
72734 57310 335
55822 66046 335
64463 63880 299
56187 67301 335
54270 55888 260
13820 98210 351
23910 83021 351
73291 80210 351
32180 83921 351
32180 93201 351
